…
:::

```{.r .cell-code}
# Collect metrics
tree_fits |> 
  collect_metrics()
```

::: {.cell-output .cell-output-stdout}

```
# A tibble: 50 × 8
   cost_complexity tree_depth .metric     .estimator  mean     n std_err .config
             <dbl>      <int> <chr>       <chr>      <dbl> <int>   <dbl> <chr>  
 1    0.0000000001          1 mn_log_loss binary     0.619     5 0.00120 pre0_m…
 2    0.0000000001          4 mn_log_loss binary     0.588     5 0.00159 pre0_m…
 3    0.0000000001          8 mn_log_loss binary     0.577     5 0.00179 pre0_m…
 4    0.0000000001         11 mn_log_loss binary     0.589     5 0.00222 pre0_m…
 5    0.0000000001         15 mn_log_loss binary     0.604     5 0.00451 pre0_m…
 6    0.000000001           1 mn_log_loss binary     0.619     5 0.00120 pre0_m…
 7    0.000000001           4 mn_log_loss binary     0.588     5 0.00159 pre0_m…
 8    0.000000001           8 mn_log_loss binary     0.577     5 0.00179 pre0_m…
 9    0.000000001          11 mn_log_loss binary     0.589     5 0.00222 pre0_m…
10    0.000000001          15 mn_log_loss binary     0.604     5 0.00451 pre0_m…
# ℹ 40 more rows
```
…
```{.r .cell-code}
# Recipe
RF_rec <- recipe(DiabetesF ~ BPF + CholF + PhysF + FruitsF + VeggiesF + AlcF + SexF + BMI + MentHlth,
                    data = diabetes_train) |>
  step_normalize(all_numeric()) |>
 step_dummy(BPF, CholF, PhysF, FruitsF, VeggiesF, AlcF, SexF)
RF_rec |>
prep(diabetes_train) |>
 bake(diabetes_train) 
```

::: {.cell-output .cell-output-stdout}

```
# A tibble: 49,484 × 10
      BMI MentHlth DiabetesF        BPF_High.BP CholF_High.cholesterol PhysF_Yes
    <dbl>    <dbl> <fct>                  <dbl>                  <dbl>     <dbl>
 1  0.589   -0.458 Prediabetes/Dia…           1                      1         0
 2 -1.53    -0.458 Prediabetes/Dia…           0                      1         1
 3 -0.683   -0.458 No diabetes                1                      1         1
 4 -0.824   -0.458 No diabetes                1                      0         1
 5 -0.400   -0.458 Prediabetes/Dia…           0                      1         1
 6 -0.824    2.01  No diabetes                0                      1         1
 7 -0.400   -0.458 No diabetes                1                      1         0
 8  0.447   -0.458 Prediabetes/Dia…           0                      0         1
 9 -0.541   -0.458 No diabetes                0                      0         1
10 -0.824    1.51  No diabetes                1                      0         1
# ℹ 49,474 more rows
# ℹ 4 more variables: FruitsF_Yes <dbl>, VeggiesF_Yes <dbl>, AlcF_Yes <dbl>,
#   SexF_Male <dbl>
```
…
